 [
    {
      "title": "Free Delivery",
      "text": "On orders over £30",
      "link": "Find out more",
      "imgPath": "icon-free-delivery.png"
    },
    {
      "title": "Click & Collect",
      "text": "Available at all our stores",
      "link": "Store Locator",
      "imgPath": "icon-click.png"
    },
    {
      "title": "Subscribe & Save",
      "text": "Save on your pet food now",
      "link": "Find out more",
      "imgPath": "icon-subscribe.png"
    }
  ]
 